# Blender v2.77 (sub 0) OBJ File: 'background.blend'
# www.blender.org
mtllib background.mtl
o Plane
v -1.000000 -1.000000 -0.000000
v 1.000000 -1.000000 -0.000000
v -1.000000 1.000000 0.000000
v 1.000000 1.000000 0.000000
vt -1.000000 -1.000000
vt 1.000000 -1.000000
vt -1.000000 1.000000
vt 1.000000 1.000000
vn 0.0000 -0.0000 1.0000
usemtl Material
s off
f 2/2/1 3/3/1 1/1/1
f 2/2/1 4/4/1 3/3/1
